{
  "logs": [
    {
      "message": "New Log",
      "attention": false,
      "tech": "Jamal Ludin",
      "date": "2020-06-24T03:12:00.919Z",
      "id": 1
    },
    {
      "message": "Jamal is on fire",
      "attention": true,
      "tech": "Rudi Rudal",
      "date": "2020-06-24T03:12:16.233Z",
      "id": 2
    }
  ],
  "techs": [
    {
      "id": 1,
      "firstName": "Jamal",
      "lastName": "Ludin"
    },
    {
      "id": 2,
      "firstName": "Rudi",
      "lastName": "Rudal"
    }
  ]
}